Spring 2019 Learning envt SI NN
…
#Total_Rewards
Total_RV=left_join(Total.visits, Total_Rewards, by="bee")
index = which(is.na(Total_RV$Rewards))
Total_RV = Total_RV[-index,]
colnames(Total_RV)=c("bee", "Treatment.Visits", "Treatment.Rewards")
#Total_RV

#Counting visits and rewards during test runs
tbl_df(Full.Test1)

## # A tibble: 83,126 x 6
##    date     t.day    flower bee                     t.forage reward
##    <fct>    <fct>     <int> <fct>                      <int>  <int>
##  1 2019.4.2 14:13:16  50130 DC-24-66-01-0B-00-12-E0   533540      1
##  2 2019.4.2 14:13:17  50130 DC-24-66-01-0B-00-12-E0   534134      0
##  3 2019.4.2 14:14:04  50130 DC-24-66-01-0B-00-12-E0   581195      1
##  4 2019.4.2 14:14:06  50130 DC-24-66-01-0B-00-12-E0   583065      0
##  5 2019.4.2 14:14:06  50130 DC-24-66-01-0B-00-12-E0   583432      0
##  6 2019.4.2 14:15:09  50144 70-96-FA-04-08-00-12-E0   645702      1
##  7 2019.4.2 14:15:09  50144 70-96-FA-04-08-00-12-E0   646111      0
##  8 2019.4.2 14:15:10  50144 70-96-FA-04-08-00-12-E0   646883      0
##  9 2019.4.2 14:15:11  50144 70-96-FA-04-08-00-12-E0   648363      0
## 10 2019.4.2 14:15:19  50144 70-96-FA-04-08-00-12-E0   655845      0
## # ... with 83,116 more rows
…
